trace/trace.vcd
$timescale 1ps $end
$scope module ramulator $end
$scope module cmd $end
$var wire 64 cycle cycle $end
$var wire 7 cmd cmd $end
$var wire 64 addr addr $end
$var wire 2 WCKSync WCKSync $end
$upscope $end
$scope module bank_status $end
$scope module bg00 $end
$scope module ba00 $end
$var wire 4 bank_status_00_00 bank_status_00_00 $end
$upscope $end
$scope module ba01 $end
$var wire 4 bank_status_00_01 bank_status_00_01 $end
$upscope $end
$scope module ba02 $end
$var wire 4 bank_status_00_02 bank_status_00_02 $end
$upscope $end
$scope module ba03 $end
$var wire 4 bank_status_00_03 bank_status_00_03 $end
$upscope $end
$upscope $end
$scope module bg01 $end
$scope module ba00 $end
$var wire 4 bank_status_01_00 bank_status_01_00 $end
$upscope $end
$scope module ba01 $end
$var wire 4 bank_status_01_01 bank_status_01_01 $end
$upscope $end
$scope module ba02 $end
$var wire 4 bank_status_01_02 bank_status_01_02 $end
$upscope $end
$scope module ba03 $end
$var wire 4 bank_status_01_03 bank_status_01_03 $end
$upscope $end
$upscope $end
$scope module bg02 $end
$scope module ba00 $end
$var wire 4 bank_status_02_00 bank_status_02_00 $end
$upscope $end
$scope module ba01 $end
$var wire 4 bank_status_02_01 bank_status_02_01 $end
$upscope $end
$scope module ba02 $end
$var wire 4 bank_status_02_02 bank_status_02_02 $end
$upscope $end
$scope module ba03 $end
$var wire 4 bank_status_02_03 bank_status_02_03 $end
$upscope $end
$upscope $end
$scope module bg03 $end
$scope module ba00 $end
$var wire 4 bank_status_03_00 bank_status_03_00 $end
$upscope $end
$scope module ba01 $end
$var wire 4 bank_status_03_01 bank_status_03_01 $end
$upscope $end
$scope module ba02 $end
$var wire 4 bank_status_03_02 bank_status_03_02 $end
$upscope $end
$scope module ba03 $end
$var wire 4 bank_status_03_03 bank_status_03_03 $end
$upscope $end
$upscope $end
$upscope $end
$upscope $end
$enddefinitions $end
#0
#1250
b0000000000000000000000000000000000000000000000000000000000000001 cycle
b00 WCKSync
b0010 bank_status_00_00
b0010 bank_status_00_01
b0010 bank_status_00_02
b0010 bank_status_00_03
b0010 bank_status_01_00
b0010 bank_status_01_01
b0010 bank_status_01_02
b0010 bank_status_01_03
b0010 bank_status_02_00
b0010 bank_status_02_01
b0010 bank_status_02_02
b0010 bank_status_02_03
b0010 bank_status_03_00
b0010 bank_status_03_01
b0010 bank_status_03_02
b0010 bank_status_03_03
b0000000 cmd
b0000000000000000000000000000000000000000000000000000000000000000 addr
#2500
b0000000000000000000000000000000000000000000000000000000000000010 cycle
b00 WCKSync
b0000000 cmd
b0000000000000000000000000000000000000000000000000000000000000000 addr
b0000001 cmd
b0000000000000000000000000000000000000000000000000000000000000000 addr
#3750
b0000000000000000000000000000000000000000000000000000000000000011 cycle
b00 WCKSync
b0000001 cmd
b0000000000000000000000000000000000000000000000000000000000000000 addr
b0000000 cmd
b0000000000000000000000000000000000000000000000000000000000000000 addr
#5000
b0000000000000000000000000000000000000000000000000000000000000100 cycle
b00 WCKSync
b0000 bank_status_00_00
b0000000 cmd
b0000000000000000000000000000000000000000000000000000000000000000 addr
b0000010 cmd
b0000000000000000000000000000000000000000000000000000000000000000 addr
#6250
b0000000000000000000000000000000000000000000000000000000000000101 cycle
b00 WCKSync
b0000010 cmd
b0000000000000000000000000000000000000000000000000000000000000000 addr
b0000000 cmd
b0000000000000000000000000000000000000000000000000000000000000000 addr
#7500
b0000000000000000000000000000000000000000000000000000000000000110 cycle
b00 WCKSync
b0001 bank_status_00_00
b0000000 cmd
b0000000000000000000000000000000000000000000000000000000000000000 addr
b0000000 cmd
b0000000000000000000000000000000000000000000000000000000000000000 addr
#8750
b0000000000000000000000000000000000000000000000000000000000000111 cycle
b00 WCKSync
b0000000 cmd
b0000000000000000000000000000000000000000000000000000000000000000 addr
b0000000 cmd
b0000000000000000000000000000000000000000000000000000000000000000 addr
#10000
b0000000000000000000000000000000000000000000000000000000000001000 cycle
b00 WCKSync
b0000000 cmd
b0000000000000000000000000000000000000000000000000000000000000000 addr
b0000000 cmd
b0000000000000000000000000000000000000000000000000000000000000000 addr
#11250
b0000000000000000000000000000000000000000000000000000000000001001 cycle
b00 WCKSync
b0000000 cmd
b0000000000000000000000000000000000000000000000000000000000000000 addr
b0000000 cmd
b0000000000000000000000000000000000000000000000000000000000000000 addr
#12500
b0000000000000000000000000000000000000000000000000000000000001010 cycle
b00 WCKSync
b0000000 cmd
b0000000000000000000000000000000000000000000000000000000000000000 addr
b0000000 cmd
b0000000000000000000000000000000000000000000000000000000000000000 addr
#13750
b0000000000000000000000000000000000000000000000000000000000001011 cycle
b00 WCKSync
b0000000 cmd
b0000000000000000000000000000000000000000000000000000000000000000 addr
b0000000 cmd
b0000000000000000000000000000000000000000000000000000000000000000 addr
#15000
b0000000000000000000000000000000000000000000000000000000000001100 cycle
b00 WCKSync
b0000000 cmd
b0000000000000000000000000000000000000000000000000000000000000000 addr
b0000000 cmd
b0000000000000000000000000000000000000000000000000000000000000000 addr
#16250
b0000000000000000000000000000000000000000000000000000000000001101 cycle
b00 WCKSync
b0000000 cmd
b0000000000000000000000000000000000000000000000000000000000000000 addr
b0000000 cmd
b0000000000000000000000000000000000000000000000000000000000000000 addr
#17500
b0000000000000000000000000000000000000000000000000000000000001110 cycle
b00 WCKSync
b0000000 cmd
b0000000000000000000000000000000000000000000000000000000000000000 addr
b0000000 cmd
b0000000000000000000000000000000000000000000000000000000000000000 addr
#18750
b0000000000000000000000000000000000000000000000000000000000001111 cycle
b00 WCKSync
b0000000 cmd
b0000000000000000000000000000000000000000000000000000000000000000 addr
b0000000 cmd
b0000000000000000000000000000000000000000000000000000000000000000 addr
#20000
b0000000000000000000000000000000000000000000000000000000000010000 cycle
b00 WCKSync
b0000000 cmd
b0000000000000000000000000000000000000000000000000000000000000000 addr
b0000000 cmd
b0000000000000000000000000000000000000000000000000000000000000000 addr
#21250
b0000000000000000000000000000000000000000000000000000000000010001 cycle
b00 WCKSync
b0000000 cmd
b0000000000000000000000000000000000000000000000000000000000000000 addr
b0000000 cmd
b0000000000000000000000000000000000000000000000000000000000000000 addr
#22500
b0000000000000000000000000000000000000000000000000000000000010010 cycle
b00 WCKSync
b0000000 cmd
b0000000000000000000000000000000000000000000000000000000000000000 addr
b0000000 cmd
b0000000000000000000000000000000000000000000000000000000000000000 addr
#23750
b0000000000000000000000000000000000000000000000000000000000010011 cycle
b00 WCKSync
b0000000 cmd
b0000000000000000000000000000000000000000000000000000000000000000 addr
b0000000 cmd
b0000000000000000000000000000000000000000000000000000000000000000 addr
#25000
b0000000000000000000000000000000000000000000000000000000000010100 cycle
b00 WCKSync
b0000000 cmd
b0000000000000000000000000000000000000000000000000000000000000000 addr
b0000101 cmd
b0000000000000000000000000000000000000000000000000000000000000000 addr
#26250
b0000000000000000000000000000000000000000000000000000000000010101 cycle
b00 WCKSync
b0000101 cmd
b0000000000000000000000000000000000000000000000000000000000000000 addr
b0000000 cmd
b0000000000000000000000000000000000000000000000000000000000000000 addr
#27500
b0000000000000000000000000000000000000000000000000000000000010110 cycle
b11 WCKSync
b0000000 cmd
b0000000000000000000000000000000000000000000000000000000000000000 addr
b0000000 cmd
b0000000000000000000000000000000000000000000000000000000000000000 addr
#28750
b0000000000000000000000000000000000000000000000000000000000010111 cycle
b11 WCKSync
b0000000 cmd
b0000000000000000000000000000000000000000000000000000000000000000 addr
b0000000 cmd
b0000000000000000000000000000000000000000000000000000000000000000 addr
#30000
b0000000000000000000000000000000000000000000000000000000000011000 cycle
b11 WCKSync
b0000000 cmd
b0000000000000000000000000000000000000000000000000000000000000000 addr
b0000000 cmd
b0000000000000000000000000000000000000000000000000000000000000000 addr
#31250
b0000000000000000000000000000000000000000000000000000000000011001 cycle
b11 WCKSync
b0000000 cmd
b0000000000000000000000000000000000000000000000000000000000000000 addr
b0000000 cmd
b0000000000000000000000000000000000000000000000000000000000000000 addr
#32500
b0000000000000000000000000000000000000000000000000000000000011010 cycle
b11 WCKSync
b0000000 cmd
b0000000000000000000000000000000000000000000000000000000000000000 addr
b0000000 cmd
b0000000000000000000000000000000000000000000000000000000000000000 addr
#33750
b0000000000000000000000000000000000000000000000000000000000011011 cycle
b11 WCKSync
b0000000 cmd
b0000000000000000000000000000000000000000000000000000000000000000 addr
b0000000 cmd
b0000000000000000000000000000000000000000000000000000000000000000 addr
#35000
b0000000000000000000000000000000000000000000000000000000000011100 cycle
b11 WCKSync
b0000000 cmd
b0000000000000000000000000000000000000000000000000000000000000000 addr
b0000000 cmd
b0000000000000000000000000000000000000000000000000000000000000000 addr
#36250
b0000000000000000000000000000000000000000000000000000000000011101 cycle
b11 WCKSync
b0000000 cmd
b0000000000000000000000000000000000000000000000000000000000000000 addr
b0000000 cmd
b0000000000000000000000000000000000000000000000000000000000000000 addr
#37500
b0000000000000000000000000000000000000000000000000000000000011110 cycle
b11 WCKSync
b0000000 cmd
b0000000000000000000000000000000000000000000000000000000000000000 addr
b0000000 cmd
b0000000000000000000000000000000000000000000000000000000000000000 addr
#38750
b0000000000000000000000000000000000000000000000000000000000011111 cycle
b11 WCKSync
b0000000 cmd
b0000000000000000000000000000000000000000000000000000000000000000 addr
b0000000 cmd
b0000000000000000000000000000000000000000000000000000000000000000 addr
#40000
b0000000000000000000000000000000000000000000000000000000000100000 cycle
b11 WCKSync
b0000000 cmd
b0000000000000000000000000000000000000000000000000000000000000000 addr
b0000000 cmd
b0000000000000000000000000000000000000000000000000000000000000000 addr
#41250
b0000000000000000000000000000000000000000000000000000000000100001 cycle
b11 WCKSync
b0000000 cmd
b0000000000000000000000000000000000000000000000000000000000000000 addr
b0000000 cmd
b0000000000000000000000000000000000000000000000000000000000000000 addr
#42500
b0000000000000000000000000000000000000000000000000000000000100010 cycle
b11 WCKSync
b0000000 cmd
b0000000000000000000000000000000000000000000000000000000000000000 addr
b0000000 cmd
b0000000000000000000000000000000000000000000000000000000000000000 addr
#43750
b0000000000000000000000000000000000000000000000000000000000100011 cycle
b11 WCKSync
b0000000 cmd
b0000000000000000000000000000000000000000000000000000000000000000 addr
b0000000 cmd
b0000000000000000000000000000000000000000000000000000000000000000 addr
#45000
b0000000000000000000000000000000000000000000000000000000000100100 cycle
b11 WCKSync
b0000000 cmd
b0000000000000000000000000000000000000000000000000000000000000000 addr
b0000000 cmd
b0000000000000000000000000000000000000000000000000000000000000000 addr
#46250
b0000000000000000000000000000000000000000000000000000000000100101 cycle
b11 WCKSync
b0000000 cmd
b0000000000000000000000000000000000000000000000000000000000000000 addr
b0000000 cmd
b0000000000000000000000000000000000000000000000000000000000000000 addr
#47500
b0000000000000000000000000000000000000000000000000000000000100110 cycle
b11 WCKSync
b0000000 cmd
b0000000000000000000000000000000000000000000000000000000000000000 addr
b0000000 cmd
b0000000000000000000000000000000000000000000000000000000000000000 addr
#48750
b0000000000000000000000000000000000000000000000000000000000100111 cycle
b11 WCKSync
b0000000 cmd
b0000000000000000000000000000000000000000000000000000000000000000 addr
b0000000 cmd
b0000000000000000000000000000000000000000000000000000000000000000 addr
#50000
b0000000000000000000000000000000000000000000000000000000000101000 cycle
b11 WCKSync
b0000000 cmd
b0000000000000000000000000000000000000000000000000000000000000000 addr
b0000011 cmd
b0000000000000000000000000000000000000000000000001000000000000000 addr
#51250
b0000000000000000000000000000000000000000000000000000000000101001 cycle
b11 WCKSync
b0000011 cmd
b0000000000000000000000000000000000000000000000001000000000000000 addr
b0000000 cmd
b0000000000000000000000000000000000000000000000000000000000000000 addr
#52500
b0000000000000000000000000000000000000000000000000000000000101010 cycle
b11 WCKSync
b0010 bank_status_00_00
b0000000 cmd
b0000000000000000000000000000000000000000000000000000000000000000 addr
b0000000 cmd
b0000000000000000000000000000000000000000000000000000000000000000 addr
#53750
b0000000000000000000000000000000000000000000000000000000000101011 cycle
b11 WCKSync
b0000000 cmd
b0000000000000000000000000000000000000000000000000000000000000000 addr
b0000000 cmd
b0000000000000000000000000000000000000000000000000000000000000000 addr
#55000
b0000000000000000000000000000000000000000000000000000000000101100 cycle
b11 WCKSync
b0000000 cmd
b0000000000000000000000000000000000000000000000000000000000000000 addr
b0000000 cmd
b0000000000000000000000000000000000000000000000000000000000000000 addr
#56250
b0000000000000000000000000000000000000000000000000000000000101101 cycle
b11 WCKSync
b0000000 cmd
b0000000000000000000000000000000000000000000000000000000000000000 addr
b0000000 cmd
b0000000000000000000000000000000000000000000000000000000000000000 addr
#57500
b0000000000000000000000000000000000000000000000000000000000101110 cycle
b11 WCKSync
b0000000 cmd
b0000000000000000000000000000000000000000000000000000000000000000 addr
b0000000 cmd
b0000000000000000000000000000000000000000000000000000000000000000 addr
#58750
b0000000000000000000000000000000000000000000000000000000000101111 cycle
b11 WCKSync
b0000000 cmd
b0000000000000000000000000000000000000000000000000000000000000000 addr
b0000000 cmd
b0000000000000000000000000000000000000000000000000000000000000000 addr
#60000
b0000000000000000000000000000000000000000000000000000000000110000 cycle
b11 WCKSync
b0000000 cmd
b0000000000000000000000000000000000000000000000000000000000000000 addr
b0000000 cmd
b0000000000000000000000000000000000000000000000000000000000000000 addr
#61250
b0000000000000000000000000000000000000000000000000000000000110001 cycle
b11 WCKSync
b0000000 cmd
b0000000000000000000000000000000000000000000000000000000000000000 addr
b0000000 cmd
b0000000000000000000000000000000000000000000000000000000000000000 addr
#62500
b0000000000000000000000000000000000000000000000000000000000110010 cycle
b11 WCKSync
b0000000 cmd
b0000000000000000000000000000000000000000000000000000000000000000 addr
b0000000 cmd
b0000000000000000000000000000000000000000000000000000000000000000 addr
#63750
b0000000000000000000000000000000000000000000000000000000000110011 cycle
b00 WCKSync
b0000000 cmd
b0000000000000000000000000000000000000000000000000000000000000000 addr
b0000000 cmd
b0000000000000000000000000000000000000000000000000000000000000000 addr
#65000
b0000000000000000000000000000000000000000000000000000000000110100 cycle
b00 WCKSync
b0000000 cmd
b0000000000000000000000000000000000000000000000000000000000000000 addr
b0000000 cmd
b0000000000000000000000000000000000000000000000000000000000000000 addr
#66250
b0000000000000000000000000000000000000000000000000000000000110101 cycle
b00 WCKSync
b0000000 cmd
b0000000000000000000000000000000000000000000000000000000000000000 addr
b0000000 cmd
b0000000000000000000000000000000000000000000000000000000000000000 addr
#67500
b0000000000000000000000000000000000000000000000000000000000110110 cycle
b00 WCKSync
b0000000 cmd
b0000000000000000000000000000000000000000000000000000000000000000 addr
b0000000 cmd
b0000000000000000000000000000000000000000000000000000000000000000 addr
#68750
b0000000000000000000000000000000000000000000000000000000000110111 cycle
b00 WCKSync
b0000000 cmd
b0000000000000000000000000000000000000000000000000000000000000000 addr
b0000000 cmd
b0000000000000000000000000000000000000000000000000000000000000000 addr
#70000
b0000000000000000000000000000000000000000000000000000000000111000 cycle
b00 WCKSync
b0000000 cmd
b0000000000000000000000000000000000000000000000000000000000000000 addr
b0000001 cmd
b0000000000000000000000000000000000000000000000001000000000000000 addr
#71250
b0000000000000000000000000000000000000000000000000000000000111001 cycle
b00 WCKSync
b0000001 cmd
b0000000000000000000000000000000000000000000000001000000000000000 addr
b0000000 cmd
b0000000000000000000000000000000000000000000000000000000000000000 addr
#72500
b0000000000000000000000000000000000000000000000000000000000111010 cycle
b00 WCKSync
b0000 bank_status_00_00
b0000000 cmd
b0000000000000000000000000000000000000000000000000000000000000000 addr
b0000010 cmd
b0000000000000000000000000000000000000000000000001000000000000000 addr
#73750
b0000000000000000000000000000000000000000000000000000000000111011 cycle
b00 WCKSync
b0000010 cmd
b0000000000000000000000000000000000000000000000001000000000000000 addr
b0000000 cmd
b0000000000000000000000000000000000000000000000000000000000000000 addr
#75000
b0000000000000000000000000000000000000000000000000000000000111100 cycle
b00 WCKSync
b0001 bank_status_00_00
b0000000 cmd
b0000000000000000000000000000000000000000000000000000000000000000 addr
b0000000 cmd
b0000000000000000000000000000000000000000000000000000000000000000 addr
#76250
b0000000000000000000000000000000000000000000000000000000000111101 cycle
b00 WCKSync
b0000000 cmd
b0000000000000000000000000000000000000000000000000000000000000000 addr
b0000000 cmd
b0000000000000000000000000000000000000000000000000000000000000000 addr
#77500
b0000000000000000000000000000000000000000000000000000000000111110 cycle
b00 WCKSync
b0000000 cmd
b0000000000000000000000000000000000000000000000000000000000000000 addr
b0000000 cmd
b0000000000000000000000000000000000000000000000000000000000000000 addr
#78750
b0000000000000000000000000000000000000000000000000000000000111111 cycle
b00 WCKSync
b0000000 cmd
b0000000000000000000000000000000000000000000000000000000000000000 addr
b0000000 cmd
b0000000000000000000000000000000000000000000000000000000000000000 addr
#80000
b0000000000000000000000000000000000000000000000000000000001000000 cycle
b00 WCKSync
b0000000 cmd
b0000000000000000000000000000000000000000000000000000000000000000 addr
b0000000 cmd
b0000000000000000000000000000000000000000000000000000000000000000 addr
#81250
b0000000000000000000000000000000000000000000000000000000001000001 cycle
b00 WCKSync
b0000000 cmd
b0000000000000000000000000000000000000000000000000000000000000000 addr
b0000000 cmd
b0000000000000000000000000000000000000000000000000000000000000000 addr
#82500
b0000000000000000000000000000000000000000000000000000000001000010 cycle
b00 WCKSync
b0000000 cmd
b0000000000000000000000000000000000000000000000000000000000000000 addr
b0000000 cmd
b0000000000000000000000000000000000000000000000000000000000000000 addr
#83750
b0000000000000000000000000000000000000000000000000000000001000011 cycle
b00 WCKSync
b0000000 cmd
b0000000000000000000000000000000000000000000000000000000000000000 addr
b0000000 cmd
b0000000000000000000000000000000000000000000000000000000000000000 addr
#85000
b0000000000000000000000000000000000000000000000000000000001000100 cycle
b00 WCKSync
b0000000 cmd
b0000000000000000000000000000000000000000000000000000000000000000 addr
b0000000 cmd
b0000000000000000000000000000000000000000000000000000000000000000 addr
#86250
b0000000000000000000000000000000000000000000000000000000001000101 cycle
b00 WCKSync
b0000000 cmd
b0000000000000000000000000000000000000000000000000000000000000000 addr
b0000000 cmd
b0000000000000000000000000000000000000000000000000000000000000000 addr
#87500
b0000000000000000000000000000000000000000000000000000000001000110 cycle
b00 WCKSync
b0000000 cmd
b0000000000000000000000000000000000000000000000000000000000000000 addr
b0000000 cmd
b0000000000000000000000000000000000000000000000000000000000000000 addr
#88750
b0000000000000000000000000000000000000000000000000000000001000111 cycle
b00 WCKSync
b0000000 cmd
b0000000000000000000000000000000000000000000000000000000000000000 addr
b0000000 cmd
b0000000000000000000000000000000000000000000000000000000000000000 addr
#90000
b0000000000000000000000000000000000000000000000000000000001001000 cycle
b00 WCKSync
b0000000 cmd
b0000000000000000000000000000000000000000000000000000000000000000 addr
b0000000 cmd
b0000000000000000000000000000000000000000000000000000000000000000 addr
#91250
b0000000000000000000000000000000000000000000000000000000001001001 cycle
b00 WCKSync
b0000000 cmd
b0000000000000000000000000000000000000000000000000000000000000000 addr
b0000000 cmd
b0000000000000000000000000000000000000000000000000000000000000000 addr
#92500
b0000000000000000000000000000000000000000000000000000000001001010 cycle
b00 WCKSync
b0000000 cmd
b0000000000000000000000000000000000000000000000000000000000000000 addr
b0000101 cmd
b0000000000000000000000000000000000000000000000001000000000000000 addr
#93750
b0000000000000000000000000000000000000000000000000000000001001011 cycle
b00 WCKSync
b0000101 cmd
b0000000000000000000000000000000000000000000000001000000000000000 addr
b0000000 cmd
b0000000000000000000000000000000000000000000000000000000000000000 addr
#95000
b0000000000000000000000000000000000000000000000000000000001001100 cycle
b11 WCKSync
b0000000 cmd
b0000000000000000000000000000000000000000000000000000000000000000 addr
b0000000 cmd
b0000000000000000000000000000000000000000000000000000000000000000 addr
#96250
b0000000000000000000000000000000000000000000000000000000001001101 cycle
b11 WCKSync
b0000000 cmd
b0000000000000000000000000000000000000000000000000000000000000000 addr
b0000000 cmd
b0000000000000000000000000000000000000000000000000000000000000000 addr
#97500
b0000000000000000000000000000000000000000000000000000000001001110 cycle
b11 WCKSync
b0000000 cmd
b0000000000000000000000000000000000000000000000000000000000000000 addr
b0000000 cmd
b0000000000000000000000000000000000000000000000000000000000000000 addr
#98750
b0000000000000000000000000000000000000000000000000000000001001111 cycle
b11 WCKSync
b0000000 cmd
b0000000000000000000000000000000000000000000000000000000000000000 addr
b0000000 cmd
b0000000000000000000000000000000000000000000000000000000000000000 addr
#100000
b0000000000000000000000000000000000000000000000000000000001010000 cycle
b11 WCKSync
b0000000 cmd
b0000000000000000000000000000000000000000000000000000000000000000 addr
b0000000 cmd
b0000000000000000000000000000000000000000000000000000000000000000 addr
#101250
b0000000000000000000000000000000000000000000000000000000001010001 cycle
b11 WCKSync
b0000000 cmd
b0000000000000000000000000000000000000000000000000000000000000000 addr
b0000000 cmd
b0000000000000000000000000000000000000000000000000000000000000000 addr
#102500
b0000000000000000000000000000000000000000000000000000000001010010 cycle
b11 WCKSync
b0000000 cmd
b0000000000000000000000000000000000000000000000000000000000000000 addr
b0000000 cmd
b0000000000000000000000000000000000000000000000000000000000000000 addr
#103750
b0000000000000000000000000000000000000000000000000000000001010011 cycle
b11 WCKSync
b0000000 cmd
b0000000000000000000000000000000000000000000000000000000000000000 addr
b0000000 cmd
b0000000000000000000000000000000000000000000000000000000000000000 addr
#105000
b0000000000000000000000000000000000000000000000000000000001010100 cycle
b11 WCKSync
b0000000 cmd
b0000000000000000000000000000000000000000000000000000000000000000 addr
b0000000 cmd
b0000000000000000000000000000000000000000000000000000000000000000 addr
#106250
b0000000000000000000000000000000000000000000000000000000001010101 cycle
b11 WCKSync
b0000000 cmd
b0000000000000000000000000000000000000000000000000000000000000000 addr
b0000000 cmd
b0000000000000000000000000000000000000000000000000000000000000000 addr
#107500
b0000000000000000000000000000000000000000000000000000000001010110 cycle
b11 WCKSync
b0000000 cmd
b0000000000000000000000000000000000000000000000000000000000000000 addr
b0000000 cmd
b0000000000000000000000000000000000000000000000000000000000000000 addr
#108750
b0000000000000000000000000000000000000000000000000000000001010111 cycle
b11 WCKSync
b0000000 cmd
b0000000000000000000000000000000000000000000000000000000000000000 addr
b0000000 cmd
b0000000000000000000000000000000000000000000000000000000000000000 addr
#110000
b0000000000000000000000000000000000000000000000000000000001011000 cycle
b11 WCKSync
b0000000 cmd
b0000000000000000000000000000000000000000000000000000000000000000 addr
b0000000 cmd
b0000000000000000000000000000000000000000000000000000000000000000 addr
#111250
b0000000000000000000000000000000000000000000000000000000001011001 cycle
b11 WCKSync
b0000000 cmd
b0000000000000000000000000000000000000000000000000000000000000000 addr
b0000000 cmd
b0000000000000000000000000000000000000000000000000000000000000000 addr
#112500
b0000000000000000000000000000000000000000000000000000000001011010 cycle
b11 WCKSync
b0000000 cmd
b0000000000000000000000000000000000000000000000000000000000000000 addr
b0000000 cmd
b0000000000000000000000000000000000000000000000000000000000000000 addr
#113750
b0000000000000000000000000000000000000000000000000000000001011011 cycle
b11 WCKSync
b0000000 cmd
b0000000000000000000000000000000000000000000000000000000000000000 addr
b0000000 cmd
b0000000000000000000000000000000000000000000000000000000000000000 addr
#115000
b0000000000000000000000000000000000000000000000000000000001011100 cycle
b11 WCKSync
b0000000 cmd
b0000000000000000000000000000000000000000000000000000000000000000 addr
b0000000 cmd
b0000000000000000000000000000000000000000000000000000000000000000 addr
#116250
b0000000000000000000000000000000000000000000000000000000001011101 cycle
b11 WCKSync
b0000000 cmd
b0000000000000000000000000000000000000000000000000000000000000000 addr
b0000000 cmd
b0000000000000000000000000000000000000000000000000000000000000000 addr
#117500
b0000000000000000000000000000000000000000000000000000000001011110 cycle
b11 WCKSync
b0000000 cmd
b0000000000000000000000000000000000000000000000000000000000000000 addr
b0000011 cmd
b0000000000000000000000000000000000000000000000010000000000000000 addr
#118750
b0000000000000000000000000000000000000000000000000000000001011111 cycle
b11 WCKSync
b0000011 cmd
b0000000000000000000000000000000000000000000000010000000000000000 addr
b0000000 cmd
b0000000000000000000000000000000000000000000000000000000000000000 addr
#120000
b0000000000000000000000000000000000000000000000000000000001100000 cycle
b11 WCKSync
b0010 bank_status_00_00
b0000000 cmd
b0000000000000000000000000000000000000000000000000000000000000000 addr
b0000000 cmd
b0000000000000000000000000000000000000000000000000000000000000000 addr
#121250
b0000000000000000000000000000000000000000000000000000000001100001 cycle
b11 WCKSync
b0000000 cmd
b0000000000000000000000000000000000000000000000000000000000000000 addr
b0000000 cmd
b0000000000000000000000000000000000000000000000000000000000000000 addr
#122500
b0000000000000000000000000000000000000000000000000000000001100010 cycle
b11 WCKSync
b0000000 cmd
b0000000000000000000000000000000000000000000000000000000000000000 addr
b0000000 cmd
b0000000000000000000000000000000000000000000000000000000000000000 addr
#123750
b0000000000000000000000000000000000000000000000000000000001100011 cycle
b11 WCKSync
b0000000 cmd
b0000000000000000000000000000000000000000000000000000000000000000 addr
b0000000 cmd
b0000000000000000000000000000000000000000000000000000000000000000 addr
#125000
b0000000000000000000000000000000000000000000000000000000001100100 cycle
b11 WCKSync
b0000000 cmd
b0000000000000000000000000000000000000000000000000000000000000000 addr
b0000000 cmd
b0000000000000000000000000000000000000000000000000000000000000000 addr
#126250
b0000000000000000000000000000000000000000000000000000000001100101 cycle
b11 WCKSync
b0000000 cmd
b0000000000000000000000000000000000000000000000000000000000000000 addr
b0000000 cmd
b0000000000000000000000000000000000000000000000000000000000000000 addr
#127500
b0000000000000000000000000000000000000000000000000000000001100110 cycle
b11 WCKSync
b0000000 cmd
b0000000000000000000000000000000000000000000000000000000000000000 addr
b0000000 cmd
b0000000000000000000000000000000000000000000000000000000000000000 addr
#128750
b0000000000000000000000000000000000000000000000000000000001100111 cycle
b11 WCKSync
b0000000 cmd
b0000000000000000000000000000000000000000000000000000000000000000 addr
b0000000 cmd
b0000000000000000000000000000000000000000000000000000000000000000 addr
#130000
b0000000000000000000000000000000000000000000000000000000001101000 cycle
b11 WCKSync
b0000000 cmd
b0000000000000000000000000000000000000000000000000000000000000000 addr
b0000000 cmd
b0000000000000000000000000000000000000000000000000000000000000000 addr
#131250
b0000000000000000000000000000000000000000000000000000000001101001 cycle
b00 WCKSync
b0000000 cmd
b0000000000000000000000000000000000000000000000000000000000000000 addr
b0000000 cmd
b0000000000000000000000000000000000000000000000000000000000000000 addr
#132500
b0000000000000000000000000000000000000000000000000000000001101010 cycle
b00 WCKSync
b0000000 cmd
b0000000000000000000000000000000000000000000000000000000000000000 addr
b0000000 cmd
b0000000000000000000000000000000000000000000000000000000000000000 addr
#133750
b0000000000000000000000000000000000000000000000000000000001101011 cycle
b00 WCKSync
b0000000 cmd
b0000000000000000000000000000000000000000000000000000000000000000 addr
b0000000 cmd
b0000000000000000000000000000000000000000000000000000000000000000 addr
#135000
b0000000000000000000000000000000000000000000000000000000001101100 cycle
b00 WCKSync
b0000000 cmd
b0000000000000000000000000000000000000000000000000000000000000000 addr
b0000000 cmd
b0000000000000000000000000000000000000000000000000000000000000000 addr
#136250
b0000000000000000000000000000000000000000000000000000000001101101 cycle
b00 WCKSync
b0000000 cmd
b0000000000000000000000000000000000000000000000000000000000000000 addr
b0000000 cmd
b0000000000000000000000000000000000000000000000000000000000000000 addr
#137500
b0000000000000000000000000000000000000000000000000000000001101110 cycle
b00 WCKSync
b0000000 cmd
b0000000000000000000000000000000000000000000000000000000000000000 addr
b0000001 cmd
b0000000000000000000000000000000000000000000000010000000000000000 addr
#138750
b0000000000000000000000000000000000000000000000000000000001101111 cycle
b00 WCKSync
b0000001 cmd
b0000000000000000000000000000000000000000000000010000000000000000 addr
b0000000 cmd
b0000000000000000000000000000000000000000000000000000000000000000 addr
#140000
b0000000000000000000000000000000000000000000000000000000001110000 cycle
b00 WCKSync
b0000 bank_status_00_00
b0000000 cmd
b0000000000000000000000000000000000000000000000000000000000000000 addr
b0000010 cmd
b0000000000000000000000000000000000000000000000010000000000000000 addr
#141250
b0000000000000000000000000000000000000000000000000000000001110001 cycle
b00 WCKSync
b0000010 cmd
b0000000000000000000000000000000000000000000000010000000000000000 addr
b0000000 cmd
b0000000000000000000000000000000000000000000000000000000000000000 addr
#142500
b0000000000000000000000000000000000000000000000000000000001110010 cycle
b00 WCKSync
b0001 bank_status_00_00
b0000000 cmd
b0000000000000000000000000000000000000000000000000000000000000000 addr
b0000000 cmd
b0000000000000000000000000000000000000000000000000000000000000000 addr
#143750
b0000000000000000000000000000000000000000000000000000000001110011 cycle
b00 WCKSync
b0000000 cmd
b0000000000000000000000000000000000000000000000000000000000000000 addr
b0000000 cmd
b0000000000000000000000000000000000000000000000000000000000000000 addr
#145000
b0000000000000000000000000000000000000000000000000000000001110100 cycle
b00 WCKSync
b0000000 cmd
b0000000000000000000000000000000000000000000000000000000000000000 addr
b0000000 cmd
b0000000000000000000000000000000000000000000000000000000000000000 addr
#146250
b0000000000000000000000000000000000000000000000000000000001110101 cycle
b00 WCKSync
b0000000 cmd
b0000000000000000000000000000000000000000000000000000000000000000 addr
b0000000 cmd
b0000000000000000000000000000000000000000000000000000000000000000 addr
#147500
b0000000000000000000000000000000000000000000000000000000001110110 cycle
b00 WCKSync
b0000000 cmd
b0000000000000000000000000000000000000000000000000000000000000000 addr
b0000000 cmd
b0000000000000000000000000000000000000000000000000000000000000000 addr
#148750
b0000000000000000000000000000000000000000000000000000000001110111 cycle
b00 WCKSync
b0000000 cmd
b0000000000000000000000000000000000000000000000000000000000000000 addr
b0000000 cmd
b0000000000000000000000000000000000000000000000000000000000000000 addr
#150000
b0000000000000000000000000000000000000000000000000000000001111000 cycle
b00 WCKSync
b0000000 cmd
b0000000000000000000000000000000000000000000000000000000000000000 addr
b0000000 cmd
b0000000000000000000000000000000000000000000000000000000000000000 addr
#151250
b0000000000000000000000000000000000000000000000000000000001111001 cycle
b00 WCKSync
b0000000 cmd
b0000000000000000000000000000000000000000000000000000000000000000 addr
b0000000 cmd
b0000000000000000000000000000000000000000000000000000000000000000 addr
